track_nums 60
prev_ids 1 59 
next_ids 1 1 
prev_ids 1 0 
next_ids 1 2 
prev_ids 1 1 
next_ids 1 3 
prev_ids 1 2 
next_ids 1 4 
prev_ids 1 3 
next_ids 1 5 
prev_ids 1 4 
next_ids 1 6 
prev_ids 1 5 
next_ids 1 7 
prev_ids 1 6 
next_ids 1 8 
prev_ids 1 7 
next_ids 1 9 
prev_ids 1 8 
next_ids 1 10 
prev_ids 1 9 
next_ids 1 11 
prev_ids 1 10 
next_ids 1 12 
prev_ids 1 11 
next_ids 1 13 
prev_ids 1 12 
next_ids 1 14 
prev_ids 1 13 
next_ids 1 15 
prev_ids 1 14 
next_ids 1 16 
prev_ids 1 15 
next_ids 1 17 
prev_ids 1 16 
next_ids 1 18 
prev_ids 1 17 
next_ids 1 19 
prev_ids 1 18 
next_ids 1 20 
prev_ids 1 19 
next_ids 1 21 
prev_ids 1 20 
next_ids 1 22 
prev_ids 1 21 
next_ids 1 23 
prev_ids 1 22 
next_ids 1 24 
prev_ids 1 23 
next_ids 1 25 
prev_ids 1 24 
next_ids 1 26 
prev_ids 1 25 
next_ids 1 27 
prev_ids 1 26 
next_ids 1 28 
prev_ids 1 27 
next_ids 1 29 
prev_ids 1 28 
next_ids 1 30 
prev_ids 1 29 
next_ids 1 31 
prev_ids 1 30 
next_ids 1 32 
prev_ids 1 31 
next_ids 1 33 
prev_ids 1 32 
next_ids 1 34 
prev_ids 1 33 
next_ids 1 35 
prev_ids 1 34 
next_ids 1 36 
prev_ids 1 35 
next_ids 1 37 
prev_ids 1 36 
next_ids 1 38 
prev_ids 1 37 
next_ids 1 39 
prev_ids 1 38 
next_ids 1 40 
prev_ids 1 39 
next_ids 1 41 
prev_ids 1 40 
next_ids 1 42 
prev_ids 1 41 
next_ids 1 43 
prev_ids 1 42 
next_ids 1 44 
prev_ids 1 43 
next_ids 1 45 
prev_ids 1 44 
next_ids 1 46 
prev_ids 1 45 
next_ids 1 47 
prev_ids 1 46 
next_ids 1 48 
prev_ids 1 47 
next_ids 1 49 
prev_ids 1 48 
next_ids 1 50 
prev_ids 1 49 
next_ids 1 51 
prev_ids 1 50 
next_ids 1 52 
prev_ids 1 51 
next_ids 1 53 
prev_ids 1 52 
next_ids 1 54 
prev_ids 1 53 
next_ids 1 55 
prev_ids 1 54 
next_ids 1 56 
prev_ids 1 55 
next_ids 1 57 
prev_ids 1 56 
next_ids 1 58 
prev_ids 1 57 
next_ids 1 59 
prev_ids 1 58 
next_ids 1 0 
cp_s 0
cp_e 1
cp_m1 26
cp_m2 27
item_nums 53
