# Blender v3.1.2 OBJ File: ''
# www.blender.org
mtllib rect.mtl
o Cube
v 0.000000 1.000000 -1.000000
v 0.000000 -1.000000 -1.000000
v 0.000000 1.000000 1.000000
v 0.000000 -1.000000 1.000000
vt 0.000000 0.000000
vt 1.000000 0.000000
vt 0.000000 1.000000
vt 1.000000 1.000000
vn 1.0000 0.0000 0.0000
usemtl Material
s off
f 4/1/1 3/3/1 1/4/1 2/2/1
