# Blender MTL File: 'None'
# Material Count: 35

newmtl Breake_Pad_FRSG.002
Ns 4.309999
Ka 1.000000 1.000000 1.000000
Kd 1.000000 0.000000 0.000000
Ks 0.000000 0.000000 0.000000
Ke 0.000000 0.000000 0.000000
Ni 1.000000
d 1.000000
illum 1
map_Kd red.jpg

newmtl Breake_Pad_FRSG1.002
Ns 0.000000
Ka 1.000000 1.000000 1.000000
Kd 0.010000 0.010000 0.010000
Ks 0.000000 0.000000 0.000000
Ke 0.000000 0.000000 0.000000
Ni 1.000000
d 1.000000
illum 1
map_Kd 01.png

newmtl F6EngineSG1.002
Ns 4.309999
Ka 1.000000 1.000000 1.000000
Kd 1.000000 0.000000 0.000000
Ks 0.850000 0.850000 0.850000
Ke 0.000000 0.000000 0.000000
Ni 1.000000
d 1.000000
illum 2
map_Kd red.jpg

newmtl Lights1SG.002
Ns 4.309999
Ka 1.000000 1.000000 1.000000
Kd 1.000000 0.000000 0.000000
Ks 0.000000 0.000000 0.000000
Ke 0.000000 0.000000 0.000000
Ni 1.000000
d 1.000000
illum 1
map_Kd red.jpg

newmtl Morello_1SG.002
Ns 4.309999
Ka 1.000000 1.000000 1.000000
Kd 0.850000 0.850000 0.850000
Ks 0.000000 0.000000 0.000000
Ke 0.000000 0.000000 0.000000
Ni 1.000000
d 1.000000
illum 1
map_Kd light_gray.png

newmtl RearFaceSG.002
Ns 0.000000
Ka 1.000000 1.000000 1.000000
Kd 0.000000 0.000000 0.000000
Ks 0.000000 0.000000 0.000000
Ke 0.000000 0.000000 0.000000
Ni 1.000000
d 1.000000
illum 1
map_Kd black.png

newmtl RearFaceSG.003
Ns 0.000000
Ka 1.000000 1.000000 1.000000
Kd 0.000000 0.000000 0.000000
Ks 0.000000 0.000000 0.000000
Ke 0.000000 0.000000 0.000000
Ni 1.000000
d 1.000000
illum 1
map_Kd black.png

newmtl RearFaceSG.004
Ns 0.000000
Ka 1.000000 1.000000 1.000000
Kd 0.000000 0.000000 0.000000
Ks 0.000000 0.000000 0.000000
Ke 0.000000 0.000000 0.000000
Ni 1.000000
d 1.000000
illum 1
map_Kd black.png

newmtl RearFaceSG.005
Ns 0.000000
Ka 1.000000 1.000000 1.000000
Kd 0.000000 0.000000 0.000000
Ks 0.000000 0.000000 0.000000
Ke 0.000000 0.000000 0.000000
Ni 1.000000
d 1.000000
illum 1
map_Kd black.png

newmtl SM_ScudoSG.002
Ns 4.309999
Ka 1.000000 1.000000 1.000000
Kd 1.000000 1.000000 0.000000
Ks 0.000000 0.000000 0.000000
Ke 0.000000 0.000000 0.000000
Ni 1.000000
d 1.000000
illum 1
map_Kd yellow.jpg

newmtl SM_ScudoSG1.002
Ns 4.309999
Ka 1.000000 1.000000 1.000000
Kd 1.000000 0.000000 0.000000
Ks 0.000000 0.000000 0.000000
Ke 0.000000 0.000000 0.000000
Ni 1.000000
d 1.000000
illum 1
map_Kd red.jpg

newmtl SM_ScudoSG2.002
Ns 4.309999
Ka 1.000000 1.000000 1.000000
Kd 0.000000 0.650000 0.000000
Ks 0.000000 0.000000 0.000000
Ke 0.000000 0.000000 0.000000
Ni 1.000000
d 1.000000
illum 1
map_Kd green.png

newmtl SM_ScudoSG3.002
Ns 4.309999
Ka 1.000000 1.000000 1.000000
Kd 0.000000 0.000000 0.000000
Ks 0.000000 0.000000 0.000000
Ke 0.000000 0.000000 0.000000
Ni 1.000000
d 1.000000
illum 1
map_Kd black.png

newmtl Tire_FL2SG.002
Ns 18.000004
Ka 1.000000 1.000000 1.000000
Kd 0.000000 0.000000 0.000000
Ks 0.000000 0.000000 0.000000
Ke 0.000000 0.000000 0.000000
Ni 1.000000
d 1.000000
illum 1
map_Kd TexturesCom_Various_TireCar_1K_albedo.png
map_Ks black.png

newmtl initialShadingGroup.002
Ns 0.000000
Ka 1.000000 1.000000 1.000000
Kd 0.500000 0.500000 0.500000
Ks 0.000000 0.000000 0.000000
Ke 0.000000 0.000000 0.000000
Ni 1.000000
d 1.000000
illum 1
map_Kd color.png

newmtl lambert7SG.002
Ns 0.000000
Ka 1.000000 1.000000 1.000000
Kd 0.000000 0.000000 0.000000
Ks 0.000000 0.000000 0.000000
Ke 0.000000 0.000000 0.000000
Ni 1.000000
d 1.000000
illum 1
map_Kd TexturesCom_Polymer_1024_albedo.png

newmtl pCube470SG.002
Ns 0.150000
Ka 1.000000 1.000000 1.000000
Kd 0.000000 0.000000 0.000000
Ks 0.710000 0.710000 0.710000
Ke 0.000000 0.000000 0.000000
Ni 1.000000
d 1.000000
illum 2
map_Kd black.png

newmtl polySurface19SG.002
Ns 4.309999
Ka 1.000000 1.000000 1.000000
Kd 1.000000 1.000000 1.000000
Ks 0.000000 0.000000 0.000000
Ke 0.000000 0.000000 0.000000
Ni 1.000000
d 1.000000
illum 1
map_Kd white.png

newmtl polySurface19SG1.002
Ns 0.000000
Ka 1.000000 1.000000 1.000000
Kd 0.010000 0.010000 0.010000
Ks 0.000000 0.000000 0.000000
Ke 0.000000 0.000000 0.000000
Ni 1.000000
d 1.000000
illum 1
map_Kd 01.png

newmtl polySurface27SG.002
Ns 61.730000
Ka 1.000000 1.000000 1.000000
Kd 0.000000 0.000000 0.000000
Ks 0.950000 0.950000 0.950000
Ke 0.000000 0.000000 0.000000
Ni 1.000000
d 1.000000
illum 2
map_Kd black.png

newmtl polySurface353SG.002
Ns 18.000004
Ka 1.000000 1.000000 1.000000
Kd 1.000000 0.000000 0.000000
Ks 0.000000 0.000000 0.000000
Ke 0.000000 0.000000 0.000000
Ni 1.000000
d 1.000000
illum 1
map_Kd red.jpg

newmtl polySurface353SG1.002
Ns 18.000004
Ka 1.000000 1.000000 1.000000
Kd 0.010000 0.010000 0.010000
Ks 0.000000 0.000000 0.000000
Ke 0.000000 0.000000 0.000000
Ni 1.000000
d 1.000000
illum 1
map_Kd 01.png

newmtl polySurface354SG.002
Ns 0.000000
Ka 1.000000 1.000000 1.000000
Kd 0.070000 0.070000 0.070000
Ks 0.000000 0.000000 0.000000
Ke 0.000000 0.000000 0.000000
Ni 1.000000
d 1.000000
illum 1
map_Kd 18.png

newmtl polySurface354SG.003
Ns 0.000000
Ka 1.000000 1.000000 1.000000
Kd 0.070000 0.070000 0.070000
Ks 0.000000 0.000000 0.000000
Ke 0.000000 0.000000 0.000000
Ni 1.000000
d 1.000000
illum 1
map_Kd 18.png

newmtl polySurface354SG.004
Ns 0.000000
Ka 1.000000 1.000000 1.000000
Kd 0.070000 0.070000 0.070000
Ks 0.000000 0.000000 0.000000
Ke 0.000000 0.000000 0.000000
Ni 1.000000
d 1.000000
illum 1
map_Kd 18.png

newmtl polySurface354SG.005
Ns 0.000000
Ka 1.000000 1.000000 1.000000
Kd 0.070000 0.070000 0.070000
Ks 0.000000 0.000000 0.000000
Ke 0.000000 0.000000 0.000000
Ni 1.000000
d 1.000000
illum 1
map_Kd 18.png

newmtl polySurface354SG1.002
Ns 18.000004
Ka 1.000000 1.000000 1.000000
Kd 0.500000 0.500000 0.500000
Ks 0.000000 0.000000 0.000000
Ke 0.000000 0.000000 0.000000
Ni 1.000000
d 1.000000
illum 1
map_Kd color.png

newmtl polySurface354SG2.002
Ns 0.000000
Ka 1.000000 1.000000 1.000000
Kd 0.000000 0.000000 0.000000
Ks 0.000000 0.000000 0.000000
Ke 0.000000 0.000000 0.000000
Ni 1.000000
d 1.000000
illum 1
map_Kd TexturesCom_Scifi_Hexagon_1K_albedo.png

newmtl polySurface354SG3.002
Ns 18.000004
Ka 1.000000 1.000000 1.000000
Kd 0.000000 0.000000 0.000000
Ks 0.000000 0.000000 0.000000
Ke 0.000000 0.000000 0.000000
Ni 1.000000
d 1.000000
illum 1
map_Kd TexturesCom_Scifi_Hexagon_1K_albedo.png

newmtl polySurface354SG4.002
Ns 18.000004
Ka 1.000000 1.000000 1.000000
Kd 0.070000 0.070000 0.070000
Ks 0.000000 0.000000 0.000000
Ke 0.000000 0.000000 0.000000
Ni 1.000000
d 1.000000
illum 1
map_Kd 18.png

newmtl polySurface362002SG2.002
Ns 18.000004
Ka 1.000000 1.000000 1.000000
Kd 0.000000 0.000000 0.000000
Ks 0.000000 0.000000 0.000000
Ke 0.000000 0.000000 0.000000
Ni 1.000000
d 1.000000
illum 1
map_Kd TexturesCom_Scifi_Hexagon_1K_albedo.png

newmtl polySurface47SG.002
Ns 0.150000
Ka 1.000000 1.000000 1.000000
Kd 0.270000 0.270000 0.270000
Ks 1.000000 1.000000 1.000000
Ke 0.000000 0.000000 0.000000
Ni 1.000000
d 1.000000
illum 2
map_Kd 27.png

newmtl polySurface47SG.003
Ns 0.150000
Ka 1.000000 1.000000 1.000000
Kd 0.270000 0.270000 0.270000
Ks 1.000000 1.000000 1.000000
Ke 0.000000 0.000000 0.000000
Ni 1.000000
d 1.000000
illum 2
map_Kd 27.png

newmtl polySurface47SG.004
Ns 0.150000
Ka 1.000000 1.000000 1.000000
Kd 0.270000 0.270000 0.270000
Ks 1.000000 1.000000 1.000000
Ke 0.000000 0.000000 0.000000
Ni 1.000000
d 1.000000
illum 2
map_Kd 27.png

newmtl polySurface47SG.005
Ns 0.150000
Ka 1.000000 1.000000 1.000000
Kd 0.270000 0.270000 0.270000
Ks 1.000000 1.000000 1.000000
Ke 0.000000 0.000000 0.000000
Ni 1.000000
d 1.000000
illum 2
map_Kd 27.png
